// Jest Snapshot v1, https://goo.gl/fbAQLP

exports[`<NotFoundPage /> renders without errors 1`] = `
<div
  className="not-found-page"
>
  <div
    className="not-found-page__title"
  >
    Page not found!
  </div>
</div>
`;
