// Jest Snapshot v1, https://goo.gl/fbAQLP

exports[`<MoviePage /> renders connected component 1`] = `
Array [
  <header
    class="movie-header"
  >
    <div
      class="movie-header__title"
    >
      netflixroulette
    </div>
    <div
      class="movie-header__search"
    >
      <div
        class="movie-search"
      >
        <input
          class="movie-search__search-field"
          type="text"
          value=""
        />
        <div
          class="movie-search__sub-wrap"
        >
          <div
            class="search-filters"
          >
            <div
              class="search-filters__title"
            >
              search by
            </div>
            <button
              class="button"
            >
              title
            </button>
            <button
              class="button button--inactive"
            >
              genre
            </button>
          </div>
          <button
            class="button movie-search__search-button"
          >
            search
          </button>
        </div>
      </div>
      <div
        class="search-result"
      >
        <div
          class="movies-count"
        >
          0
        </div>
        <div
          class="movies-sort"
        >
          <div
            class="movies-sort__title"
          >
            Sort by
          </div>
          <div
            class="movies-sort__filter movies-sort__filter--active"
          >
            release date
          </div>
          <div
            class="movies-sort__filter"
          >
            rating
          </div>
        </div>
      </div>
    </div>
  </header>,
  <div
    class="movie-page"
  >
    <div
      class="movie-page__list-wrap"
    >
      <div
        class="no-movies"
      >
        No movies found!
      </div>
    </div>
  </div>,
]
`;

exports[`<MoviePage /> renders without errors 1`] = `
<ErrorBoundary>
  <MovieHeader
    actions={
      Object {
        "moviesFetchData": [MockFunction] {
          "calls": Array [
            Array [
              "http://react-cdp-api.herokuapp.com/movies",
            ],
          ],
        },
      }
    }
    moviesCount={10}
    moviesSort={
      Object {
        "filters": Array [
          Object {
            "label": "release date",
            "value": "release_date",
          },
          Object {
            "label": "rating",
            "value": "vote_average",
          },
        ],
        "selectedFilter": Object {
          "label": "release date",
          "value": "release_date",
        },
      }
    }
    searchFilters={
      Object {
        "activeFilter": Object {
          "label": "release date",
          "value": "release_date",
        },
        "filters": Array [
          Object {
            "label": "release date",
            "value": "release_date",
          },
          Object {
            "label": "rating",
            "value": "vote_average",
          },
        ],
      }
    }
  />
  <div
    className="movie-page"
  >
    <div
      className="movie-page__list-wrap"
    >
      <MovieList
        movies={
          Array [
            Object {
              "budget": 0,
              "genres": Array [
                "Action",
                "Adventure",
                "Science Fiction",
              ],
              "id": 447365,
              "overview": "The third film based on Marvel's Guardians of the Galaxy.",
              "poster_path": "https://image.tmdb.org/t/p/w500/ldoY4fTZkGISMidNw60GHoNdgP8.jpg",
              "release_date": "2020-05-01",
              "revenue": 0,
              "runtime": null,
              "tagline": "",
              "title": "Guardians of the Galaxy Vol. 3",
              "vote_average": 0,
              "vote_count": 9,
            },
            Object {
              "budget": 0,
              "genres": Array [
                "Science Fiction",
                "Action",
                "Adventure",
              ],
              "id": 424785,
              "overview": "Plot unknown.",
              "poster_path": "https://image.tmdb.org/t/p/w500/432BowXw7a4fWXSONxBaFKqvW4f.jpg",
              "release_date": "2019-06-26",
              "revenue": 0,
              "runtime": null,
              "tagline": "",
              "title": "Transformers 7",
              "vote_average": 0,
              "vote_count": 0,
            },
            Object {
              "budget": 0,
              "genres": Array [
                "Action",
                "Adventure",
                "Science Fiction",
              ],
              "id": 299534,
              "overview": "The culmination of the Marvel Cinematic Universe.",
              "poster_path": "https://image.tmdb.org/t/p/w500/aMETsaNNcDc6g5ZatQtVbySnSaA.jpg",
              "release_date": "2019-04-24",
              "revenue": 0,
              "runtime": null,
              "tagline": "",
              "title": "Untitled Avengers",
              "vote_average": 0,
              "vote_count": 9,
            },
            Object {
              "budget": 0,
              "genres": Array [
                "Action",
                "Adventure",
                "Fantasy",
                "Science Fiction",
              ],
              "id": 287947,
              "overview": "We all have a superhero inside us, it just takes a bit of magic to bring it out. In Billy Batson's case, by shouting out one word--SHAZAM!--this streetwise 14-year-old foster kid can turn into the adult superhero Shazam, courtesy of an ancient wizard.Still a kid at heart--inside a ripped, godlike body--Shazam revels in this adult version of himself by doing what any teen would do with superpowers: have fun with them! Can he fly? Does he have X-ray vision? Can he shoot lightning out of his hands? Can he skip his social studies test? Shazam sets out to test the limits of his abilities with the joyful recklessness of a child. But he'll need to master these powers quickly in order to fight the deadly forces of evil controlled by Doctor Thaddeus Sivana.",
              "poster_path": "https://image.tmdb.org/t/p/w500/yUOJHa9XmB1H0iYodG9Kb3YCc9T.jpg",
              "release_date": "2019-04-05",
              "revenue": 0,
              "runtime": null,
              "tagline": "",
              "title": "Shazam!",
              "vote_average": 0,
              "vote_count": 5,
            },
            Object {
              "budget": 0,
              "genres": Array [
                "Action",
                "Science Fiction",
              ],
              "id": 320288,
              "overview": "Gathered together by Professor Charles Xavier to protect a world that fears and hates them, the X-Men had fought many battles, been on adventures that spanned galaxies, grappled enemies of limitless might, but none of this could prepare them for the most shocking struggle they would ever face. One of their own members, Jean Grey, has gained power beyond all comprehension, and that power has corrupted her absolutely! Now, they must decide if the life of the woman they cherish is worth the existence of the entire universe!",
              "poster_path": "https://image.tmdb.org/t/p/w500/6qmsupE0opYPIaBGe7T5D2FBzLs.jpg",
              "release_date": "2019-02-14",
              "revenue": 0,
              "runtime": null,
              "tagline": "",
              "title": "X-Men: Dark Phoenix",
              "vote_average": 0,
              "vote_count": 0,
            },
            Object {
              "budget": 0,
              "genres": Array [
                "Action",
                "Adventure",
                "Fantasy",
                "Science Fiction",
              ],
              "id": 181790,
              "overview": "Sean and Hank go on their biggest adventure yet, to the moon.",
              "poster_path": "https://image.tmdb.org/t/p/w500/98tbNloMBztAVnWpAznKKVUdi2O.jpg",
              "release_date": "2018-12-31",
              "revenue": 0,
              "runtime": null,
              "tagline": "",
              "title": "Journey 3: From the Earth to the Moon",
              "vote_average": 0,
              "vote_count": 7,
            },
            Object {
              "budget": 160000000,
              "genres": Array [
                "Action",
                "Fantasy",
                "Science Fiction",
              ],
              "id": 297802,
              "overview": "Following the events of Justice League, Arthur Curry, the reluctant ruler of the underwater kingdom of Atlantis, is caught between surface dwellers and his own people who are ready to lash out and invade the surface.",
              "poster_path": "https://image.tmdb.org/t/p/w500/sshNRCbtU2ON8SiWLycQzr05doX.jpg",
              "release_date": "2018-12-19",
              "revenue": 0,
              "runtime": null,
              "tagline": "",
              "title": "Aquaman",
              "vote_average": 0,
              "vote_count": 0,
            },
            Object {
              "budget": 0,
              "genres": Array [
                "Adventure",
                "Action",
                "Thriller",
              ],
              "id": 353081,
              "overview": "The sixth installment in the \\"Mission: Impossible\\". When an IMF mission ends badly, the world is faced with dire consequences. As Ethan Hunt takes it upon himself to fulfil his original briefing, the CIA begin to question his loyalty and his motives. The IMF team find themselves in a race against time, hunted by assassins while trying to prevent a global catastrophe.",
              "poster_path": "https://image.tmdb.org/t/p/w500/A2W75CVz9l8gEeWhQiiftlOCkgi.jpg",
              "release_date": "2018-07-26",
              "revenue": 0,
              "runtime": null,
              "tagline": "",
              "title": "Mission: Impossible - Fallout",
              "vote_average": 0,
              "vote_count": 3,
            },
            Object {
              "budget": 0,
              "genres": Array [
                "Action",
                "Adventure",
                "Drama",
                "Science Fiction",
                "Thriller",
              ],
              "id": 351286,
              "overview": "A volcanic eruption threatens the remaining dinosaurs on the island of Isla Nublar, where the creatures have freely roamed for several years after the demise of an animal theme park known as Jurassic World. Claire Dearing, the former park manager, has now founded the Dinosaur Protection Group, an organization dedicated to protecting the dinosaurs. To help with her cause, Claire has recruited Owen Grady, a former dinosaur trainer who worked at the park, to prevent the extinction of the dinosaurs once again.",
              "poster_path": "https://image.tmdb.org/t/p/w500/ln6d5Okr6VK5vfQVobJTiYxeD0l.jpg",
              "release_date": "2018-06-01",
              "revenue": 0,
              "runtime": null,
              "tagline": "Life finds a way",
              "title": "Jurassic World: Fallen Kingdom",
              "vote_average": 0,
              "vote_count": 28,
            },
            Object {
              "budget": 0,
              "genres": Array [
                "Action",
                "Adventure",
                "Family",
                "Science Fiction",
              ],
              "id": 348350,
              "overview": "Through a series of daring escapades deep within a dark and dangerous criminal underworld, Han Solo meets his mighty future copilot Chewbacca and encounters the notorious gambler Lando Calrissian.",
              "poster_path": "https://image.tmdb.org/t/p/w500/uJ6OnE3CzGWq6buLINAbdBqa0gV.jpg",
              "release_date": "2018-05-23",
              "revenue": 0,
              "runtime": null,
              "tagline": "",
              "title": "Solo: A Star Wars Story",
              "vote_average": 0,
              "vote_count": 2,
            },
          ]
        }
      />
    </div>
  </div>
</ErrorBoundary>
`;

exports[`<MoviePage /> renders without errors when movies are loading 1`] = `
<ErrorBoundary>
  <MovieHeader
    actions={
      Object {
        "moviesFetchData": [MockFunction] {
          "calls": Array [
            Array [
              "http://react-cdp-api.herokuapp.com/movies",
            ],
            Array [
              "http://react-cdp-api.herokuapp.com/movies",
            ],
            Array [
              "http://react-cdp-api.herokuapp.com/movies",
            ],
          ],
        },
      }
    }
    moviesCount={10}
    moviesSort={
      Object {
        "filters": Array [
          Object {
            "label": "release date",
            "value": "release_date",
          },
          Object {
            "label": "rating",
            "value": "vote_average",
          },
        ],
        "selectedFilter": Object {
          "label": "release date",
          "value": "release_date",
        },
      }
    }
    searchFilters={
      Object {
        "activeFilter": Object {
          "label": "release date",
          "value": "release_date",
        },
        "filters": Array [
          Object {
            "label": "release date",
            "value": "release_date",
          },
          Object {
            "label": "rating",
            "value": "vote_average",
          },
        ],
      }
    }
  />
  <div
    className="movie-page"
  >
    <div
      className="movie-page__list-wrap"
    >
      <LoaderComponent />
    </div>
  </div>
</ErrorBoundary>
`;

exports[`<MoviePage /> renders without errors when no movies found 1`] = `
<ErrorBoundary>
  <MovieHeader
    actions={
      Object {
        "moviesFetchData": [MockFunction] {
          "calls": Array [
            Array [
              "http://react-cdp-api.herokuapp.com/movies",
            ],
            Array [
              "http://react-cdp-api.herokuapp.com/movies",
            ],
          ],
        },
      }
    }
    moviesCount={0}
    moviesSort={
      Object {
        "filters": Array [
          Object {
            "label": "release date",
            "value": "release_date",
          },
          Object {
            "label": "rating",
            "value": "vote_average",
          },
        ],
        "selectedFilter": Object {
          "label": "release date",
          "value": "release_date",
        },
      }
    }
    searchFilters={
      Object {
        "activeFilter": Object {
          "label": "release date",
          "value": "release_date",
        },
        "filters": Array [
          Object {
            "label": "release date",
            "value": "release_date",
          },
          Object {
            "label": "rating",
            "value": "vote_average",
          },
        ],
      }
    }
  />
  <div
    className="movie-page"
  >
    <div
      className="movie-page__list-wrap"
    >
      <NoMovies />
    </div>
  </div>
</ErrorBoundary>
`;
